<?xml version="1.0" encoding="UTF-8" standalone="no"?>
<svg width="11px" height="16px" viewBox="0 0 11 16" version="1.1" xmlns="http://www.w3.org/2000/svg" xmlns:xlink="http://www.w3.org/1999/xlink">
    <!-- Generator: Sketch 41.2 (35397) - http://www.bohemiancoding.com/sketch -->
    <title>mapicon</title>
    <desc>Created with Sketch.</desc>
    <defs>
        <rect id="path-1" x="0" y="0" width="328" height="48"></rect>
        <rect id="path-3" x="3" y="9" width="324" height="1"></rect>
        <mask id="mask-4" maskContentUnits="userSpaceOnUse" maskUnits="objectBoundingBox" x="0" y="0" width="324" height="1" fill="white">
            <use xlink:href="#path-3"></use>
        </mask>
        <rect id="path-5" x="110" y="10" width="1" height="36"></rect>
        <mask id="mask-6" maskContentUnits="userSpaceOnUse" maskUnits="objectBoundingBox" x="0" y="0" width="1" height="36" fill="white">
            <use xlink:href="#path-5"></use>
        </mask>
        <rect id="path-7" x="219" y="10" width="1" height="36"></rect>
        <mask id="mask-8" maskContentUnits="userSpaceOnUse" maskUnits="objectBoundingBox" x="0" y="0" width="1" height="36" fill="white">
            <use xlink:href="#path-7"></use>
        </mask>
        <rect id="path-9" x="3" y="46" width="324" height="1"></rect>
        <mask id="mask-10" maskContentUnits="userSpaceOnUse" maskUnits="objectBoundingBox" x="0" y="0" width="324" height="1" fill="white">
            <use xlink:href="#path-9"></use>
        </mask>
    </defs>
    <g id="Page-1" stroke="none" stroke-width="1" fill="none" fill-rule="evenodd">
        <g id="Map" transform="translate(-267.000000, -100.000000)">
            <g id="header" transform="translate(-1.000000, 0.000000)">
                <g id="app-bar-+-status-bar">
                    <g id="app-bar">
                        <polygon id="app-bar-bg" points="360 0 0 0 0 128 360 128"></polygon>
                        <g id="tabs" transform="translate(16.000000, 80.000000)">
                            <mask id="mask-2" fill="white">
                                <use xlink:href="#path-1"></use>
                            </mask>
                            <use id="bounds" fill-opacity="0" fill="#FFFFFF" xlink:href="#path-1"></use>
                            <g id="Rectangle-4" mask="url(#mask-2)" stroke-width="2" stroke="#979797">
                                <use mask="url(#mask-4)" xlink:href="#path-3"></use>
                            </g>
                            <g id="Rectangle-4" mask="url(#mask-2)" transform="translate(110.500000, 28.000000) scale(1, -1) translate(-110.500000, -28.000000) " stroke-width="2" stroke="#979797">
                                <use mask="url(#mask-6)" xlink:href="#path-5"></use>
                            </g>
                            <g id="Rectangle-4-Copy-2" mask="url(#mask-2)" transform="translate(219.500000, 28.000000) scale(1, -1) translate(-219.500000, -28.000000) " stroke-width="2" stroke="#979797">
                                <use mask="url(#mask-8)" xlink:href="#path-7"></use>
                            </g>
                            <g id="Rectangle-4-Copy" mask="url(#mask-2)" stroke-width="2" stroke="#979797">
                                <use mask="url(#mask-10)" xlink:href="#path-9"></use>
                            </g>
                        </g>
                        <g id="app-bar-contents" transform="translate(16.000000, 42.000000)">
                            <g id="logo" transform="translate(276.000000, 0.000000)">
                                <rect id="Rectangle-2-Copy" fill="#EA2D37" x="0" y="0" width="23" height="29"></rect>
                                <rect id="Rectangle-2" fill="#EA2D37" x="28" y="0" width="23" height="29"></rect>
                                <g id="Group-7" transform="translate(6.000000, 5.500000)" fill="#FFFFFF">
                                    <path d="M10.9168,3.1424 L5.9228,3.1424 C6.4858,2.3229 6.8988,1.5944 7.1603,0.9569 L5.9228,0.2909 C5.2963,1.5089 4.6958,2.4594 4.1213,3.1424 L0.0833,3.1424 L0.0833,16.3749 L1.4578,16.3749 L1.4578,14.9409 L9.4653,14.9409 L9.4653,16.3409 L10.9168,16.3749 L10.9168,3.1424 Z M1.4578,6.4974 L9.4658,6.4974 L9.4658,4.4144 L1.4578,4.4144 L1.4578,6.4974 Z M1.4578,9.9974 L9.4658,9.9974 L9.4658,7.7779 L1.4578,7.7779 L1.4578,9.9974 Z M1.4578,13.6174 L9.4658,13.6174 L9.4658,11.2699 L1.4578,11.2699 L1.4578,13.6174 Z" id="Fill-3"></path>
                                    <path d="M41.1328,9.80365 L38.3498,9.80365 L38.3498,9.03515 C39.2378,8.28965 39.9063,7.49565 40.3558,6.65365 L40.3558,5.53515 L35.4128,5.53515 C35.7143,5.09115 35.9763,4.61315 36.1983,4.10065 L40.8853,4.10065 L40.8853,2.82865 L36.7018,2.82865 C37.0493,1.74165 37.2368,1.01315 37.2653,0.64315 L36.0448,0.24215 C35.8343,1.64215 35.4183,2.93415 34.7983,4.11815 L34.7983,3.59715 L32.6808,3.59715 L32.6808,0.86515 L31.3408,0.86515 L31.3408,3.59715 L29.2233,3.59715 L29.2233,4.86915 L30.3588,4.86915 C30.3588,8.13615 30.1783,10.40715 29.8168,11.68165 C29.4553,12.95665 28.7798,14.18315 27.7893,15.36115 L28.8223,16.25765 C29.6473,15.29015 30.2918,14.24565 30.7558,13.12465 C31.2198,12.00365 31.4773,10.45815 31.5288,8.48915 L33.2788,8.48915 C33.2788,8.94415 33.1803,9.98565 32.9843,11.61365 C32.7878,13.24115 32.6243,14.13065 32.4933,14.28115 C32.3623,14.43215 32.2458,14.50765 32.1433,14.50765 C31.9268,14.50765 31.3378,14.40215 30.3758,14.19165 L30.8113,15.62615 C31.4888,15.75115 31.9438,15.81365 32.1773,15.81365 C32.7123,15.81365 33.1293,15.62165 33.4283,15.23765 C33.7268,14.85315 33.9813,13.90865 34.1923,12.40315 C34.4028,10.89765 34.5648,9.16915 34.6788,7.21715 L31.5798,7.21715 L31.6393,4.86915 L34.3288,4.86915 C33.8678,5.43815 33.5773,5.78265 33.4578,5.90215 L34.5163,6.58515 C34.7213,6.38015 34.9208,6.14715 35.1143,5.88515 L35.1313,6.81565 L38.7338,6.81565 C38.4663,7.24815 37.8943,7.77765 37.0178,8.40365 L37.0178,9.80365 L34.5593,9.80365 L34.5593,11.07565 L37.0178,11.07565 L37.0178,14.29415 C37.0178,14.64715 36.8443,14.82365 36.4973,14.82365 L35.0288,14.78915 L35.4473,16.12965 L37.0348,16.12965 C37.9113,16.12965 38.3498,15.65165 38.3498,14.69565 L38.3498,11.07565 L41.1328,11.07565 L41.1328,9.80365 Z M26.4748,0.99315 L25.6548,1.93265 C27.0153,2.45615 27.9428,3.20465 28.4383,4.17765 L29.3943,3.19615 C28.7798,2.17715 27.8063,1.44315 26.4748,0.99315 L26.4748,0.99315 Z M26.3208,4.34865 L25.5183,5.31315 C26.7933,5.80265 27.7663,6.61065 28.4383,7.73765 L29.3943,6.83265 C28.7908,5.74015 27.7663,4.91165 26.3208,4.34865 L26.3208,4.34865 Z M27.9088,8.40365 C27.6128,11.19815 26.7988,13.51715 25.4673,15.36115 L26.5858,16.02715 C28.0028,14.00115 28.8223,11.67065 29.0443,9.03515 L27.9088,8.40365 Z" id="Fill-5"></path>
                                </g>
                            </g>
                            <text id="特拉维夫" font-family="NotoSansCJKtc-Bold, Noto Sans CJK TC" font-size="17.5" font-weight="bold" line-spacing="28" fill="#EA2D37">
                                <tspan x="39" y="28">特拉维夫</tspan>
                            </text>
                            <g id="Material/Icons-white/menu" transform="translate(0.000000, 11.000000)" fill="#EA2D37">
                                <path d="M3,18 L21,18 L21,16 L3,16 L3,18 L3,18 Z M3,12 L21,12 L21,10 L3,10 L3,12 L3,12 Z M3,6 L21,6 L21,4 L3,4 L3,6 Z" id="Shape"></path>
                            </g>
                        </g>
                    </g>
                    <g id="status-bar">
                        <rect id="status-bar-bg" fill="#F7F7F7" x="0" y="0" width="360" height="24"></rect>
                        <g id="Material/Android/Status-bar-content-light" transform="translate(242.000000, 0.000000)">
                            <g id="time" opacity="0.9" transform="translate(74.000000, 4.000000)" font-size="14" font-family="Roboto-Medium, Roboto" fill="#58595B" font-weight="400">
                                <text id="12:30" opacity="0.4">
                                    <tspan x="0.459960938" y="13">12:30</tspan>
                                </text>
                            </g>
                            <g id="battery" opacity="0.4" transform="translate(55.000000, 4.000000)">
                                <polygon id="bounds" points="0 0 16 0 16 16 0 16"></polygon>
                                <polygon id="Shape" fill="#58595B" points="9 1.875 9 1 6 1 6 1.875 3 1.875 3 15 12 15 12 1.875"></polygon>
                            </g>
                            <g id="cellular" opacity="0.4" transform="translate(35.000000, 4.000000)">
                                <polygon id="bounds" points="0 0 16 0 16 16 0 16"></polygon>
                                <polygon id="Shape" fill="#58595B" points="0 15 14 15 14 1"></polygon>
                            </g>
                            <g id="wifi" opacity="0.4" transform="translate(14.000000, 4.000000)">
                                <polygon id="bounds" points="2 0 18 0 18 16 2 16"></polygon>
                                <path d="M19.0226279,4.01593123 C16.5117809,2.12256382 13.3869849,1 10,1 C6.61301513,1 3.48821908,2.12256382 0.977372085,4.01593123 L10,15 L19.0226279,4.01593123 Z" id="Shape" fill="#58595B"></path>
                            </g>
                        </g>
                    </g>
                </g>
            </g>
            <path d="M276.916,105.459 C276.916,107.922 272.458,114.672 272.458,114.672 C272.458,114.672 268,107.922 268,105.459 C268,102.997 269.996,101.001 272.458,101.001 C274.92,101.001 276.916,102.997 276.916,105.459 Z M274.241,105.459 C274.241,106.444 273.443,107.242 272.458,107.242 C271.474,107.242 270.674,106.444 270.674,105.459 C270.674,104.475 271.474,103.676 272.458,103.676 C273.443,103.676 274.241,104.475 274.241,105.459 Z" id="icon2" stroke="#58595B" stroke-linecap="round" stroke-linejoin="round"></path>
        </g>
    </g>
</svg>