<?xml version="1.0" encoding="utf-8"?>
<!-- Generator: Adobe Illustrator 21.0.0, SVG Export Plug-In . SVG Version: 6.00 Build 0)  -->
<svg version="1.1" id="Layer_1" xmlns="http://www.w3.org/2000/svg" xmlns:xlink="http://www.w3.org/1999/xlink" x="0px" y="0px"
	 viewBox="0 0 22 19" style="enable-background:new 0 0 22 19;" xml:space="preserve">
<style type="text/css">
	.st0{fill:none;stroke:#39A0EC;stroke-width:1.5;stroke-linecap:round;}
	.st1{fill:none;stroke:#39A0EC;stroke-width:1.5;}
</style>
<title>Group 3</title>
<desc>Created with Sketch.</desc>
<g id="Page-1">
	<g id="Name-of-Restaurant" transform="translate(-16.000000, -675.000000)">
		<g id="Group-3" transform="translate(17.000000, 676.000000)">
			<path id="Stroke-1" class="st0" d="M13.2,7.1l3.4-5.6"/>
			<path id="Stroke-3" class="st0" d="M11.8,6.9l1.3-6.4"/>
			<path id="Stroke-5" class="st1" d="M19.4,7.3H0.5c0,3.6,2.2,7,5.5,9h8C17.2,14.3,19.4,10.9,19.4,7.3z"/>
		</g>
	</g>
</g>
</svg>
