<?xml version="1.0" encoding="utf-8"?>
<!-- Generator: Adobe Illustrator 21.0.0, SVG Export Plug-In . SVG Version: 6.00 Build 0)  -->
<svg version="1.1" id="Layer_1" xmlns="http://www.w3.org/2000/svg" xmlns:xlink="http://www.w3.org/1999/xlink" x="0px" y="0px"
	 viewBox="0 0 17 21" style="enable-background:new 0 0 17 21;" xml:space="preserve">
<style type="text/css">
	.st0{fill:#1268B3;}
</style>
<title>play</title>
<desc>Created with Sketch.</desc>
<g id="Page-1">
	<polygon id="Triangle-Copy" class="st0" points="17,10.3 0,20.6 0,0 	"/>
</g>
</svg>
