<?xml version="1.0" encoding="utf-8"?>
<!-- Generator: Adobe Illustrator 21.0.0, SVG Export Plug-In . SVG Version: 6.00 Build 0)  -->
<svg version="1.1" id="Layer_1" xmlns="http://www.w3.org/2000/svg" xmlns:xlink="http://www.w3.org/1999/xlink" x="0px" y="0px"
	 viewBox="0 0 14.2 13.5" style="enable-background:new 0 0 14.2 13.5;" xml:space="preserve">
<style type="text/css">
	.st0{fill:none;stroke:#EA2D37;}
</style>
<title>Star off</title>
<desc>Created with Sketch.</desc>
<g id="Page-1">
	<polygon id="Star-Copy-3" class="st0" points="7.1,10.6 3.4,12.5 4.1,8.4 1.1,5.5 5.2,4.9 7.1,1.1 8.9,4.9 13.1,5.5 10.1,8.4 
		10.8,12.5 	"/>
</g>
</svg>
