{
  "WhereToGo" : "请选择目的地",
  "TelAviv" : "特拉维夫",
  "Jerusalem" : "耶路撒冷",
  "Haifa" : "海法",
  "DedSea" : "死海地区",
  "Weather" : "天气",
  "Degrees" : "degrees",
  "MoneyExchange" : "兑换",
  "Translation" : "翻译",
  "CityInfo":"城市概况",
  "Places":"游览推荐",
  "Map":"地图",
  "PlayList":"语音导览",
  "Favorites":"Favorites",
  "Latest":"必去之处",
  "MainMenu":"Main",
  "AboutLocation":"景点介绍",
  "RatingLocation":"评分",
  "AddressLocation":"地址",
  "OpeningHoursLocation":"开放时间",
  "TransportationLocation":"交通方式",
  "ContactLocation":"联系景点",
  "WriteReviewLocation":"写评价",
  "inputreviewtext":"输入评价",
  "sendtext":"发送",
  "canceltext":"取消",
  "CityDetailsSites":"景点",
  "CityDetailsResturants":"餐厅",
  "CityDetailsHotels":"酒店",
  "CityDetailsShops":"商店",
  "CityDetailsRentals":"租车",
  "CityDetailsShowMore":"显示更多",
  "CityDetailsShowLess":"收起菜单",
  "LocationProperties":"特色服务",
  "MyLocationText":"我的位置",

  "FromCurrencyText":"源货币",
  "ToCurrencyText":"转换后货币",
  "EnterAmountText":"请输入金额",
  "ResultText":"兑换后金额",
  "NISText":"以色列谢克尔₪",
  "USDText":"美元 $",
  "EUROText":"欧元€",
  "CNYText":"人民币¥",
  "MoneyExchangeText":"兑换",
  "TranslationText":"翻译",

  "Turnongpstext":"请打开GPS ",
  "Settingstext":"设置",
  "Canceltext":"取消",
  
  "ReadMoreText":"阅读更多"


}


