<?xml version="1.0" encoding="utf-8"?>
<!-- Generator: Adobe Illustrator 21.0.0, SVG Export Plug-In . SVG Version: 6.00 Build 0)  -->
<svg version="1.1" id="Layer_1" xmlns="http://www.w3.org/2000/svg" xmlns:xlink="http://www.w3.org/1999/xlink" x="0px" y="0px"
	 viewBox="0 0 20 18" style="enable-background:new 0 0 20 18;" xml:space="preserve">
<style type="text/css">
	.st0{fill:#1268B3;stroke:#1268B3;}
</style>
<title>red star on</title>
<desc>Created with Sketch.</desc>
<g id="Page-1">
	<polygon id="Star" class="st0" points="9.6,13.8 4.9,16.3 5.8,11.1 2,7.4 7.2,6.7 9.6,2 11.9,6.7 17.1,7.4 13.4,11.1 14.3,16.3 	
		"/>
</g>
</svg>
